Categories:Internet
License:GPL-2.0-only
Web Site:https://nextcloud.com
Source Code:https://github.com/nextcloud/android
Issue Tracker:https://github.com/nextcloud/android/issues
Changelog:https://github.com/nextcloud/android/commits
Donate:https://www.bountysource.com/teams/nextcloud

Auto Name:Nextcloud
Summary:Synchronization client
Description:
A safe home for all your data. Access & share your files, calendars, contacts,
mail & more from any device, on your terms. This is a beta version of the
official Nextcloid app and includes brand-new, untested features which might
lead to instabilities and data loss. The app is designed for users willing to
test the new features and to report bugs if they occur. Do not use it for your
productive work!

The dev version can be installed alongside the official Nextcloud app which is
available at F-Droid, too. Once a day it is checked if the source code was
updated, so there can be longer pauses between builds.
.

Repo Type:git
Repo:https://github.com/nextcloud/android.git

Build:20160612,20160612
    commit=beta-20160612
    submodules=yes
    gradle=yes
    rm=libs/disklrucache*,user_manual

Build:20160613,20160613
    commit=beta-20160613
    submodules=yes
    gradle=yes
    rm=libs/disklrucache*,user_manual

Build:20160617,20160617
    commit=beta-20160617
    submodules=yes
    gradle=yes
    rm=libs/disklrucache*,user_manual

Build:20160620,20160620
    commit=beta-20160620
    submodules=yes
    gradle=yes
    rm=libs/disklrucache*,user_manual

Build:20160621,20160621
    commit=beta-20160621
    submodules=yes
    gradle=yes
    rm=libs/disklrucache*,user_manual

Build:20160728,20160728
    commit=beta-20160728
    submodules=yes
    gradle=yes
    rm=libs/disklrucache*,user_manual

Build:20160730,20160730
    disable=java build fails
    commit=beta-20160730
    submodules=yes
    gradle=yes
    rm=libs/disklrucache*,user_manual

Build:20160731,20160731
    disable=java build fails
    commit=beta-20160731
    submodules=yes
    gradle=yes
    rm=libs/disklrucache*,user_manual

Build:20160802,20160802
    commit=beta-20160802
    submodules=yes
    gradle=yes
    rm=libs/disklrucache*,user_manual

Build:20160808,20160808
    commit=beta-20160808
    submodules=yes
    gradle=yes
    rm=libs/disklrucache*,user_manual

Build:20160809,20160809
    commit=beta-20160809
    submodules=yes
    gradle=yes
    rm=libs/disklrucache*,user_manual

Build:20160903,20160903
    commit=beta-20160903
    submodules=yes
    gradle=yes
    rm=libs/disklrucache*,user_manual

Build:20160907,20160907
    commit=beta-20160907
    submodules=yes
    gradle=yes
    rm=libs/disklrucache*,user_manual

Build:20160922,20160922
    commit=beta-20160922
    submodules=yes
    gradle=yes
    rm=libs/disklrucache*,user_manual

Build:20161006,20161006
    commit=beta-20161006
    submodules=yes
    gradle=yes
    rm=libs/disklrucache*,user_manual

Build:20161012,20161012
    commit=beta-20161012
    submodules=yes
    gradle=yes
    rm=libs/disklrucache*,user_manual

Build:20161017,20161017
    commit=beta-20161017
    submodules=yes
    gradle=yes
    rm=libs/disklrucache*,user_manual

Build:20161019,20161019
    commit=beta-20161019
    submodules=yes
    gradle=yes
    rm=libs/disklrucache*,user_manual

Build:20161026,20161026
    commit=beta-20161026
    submodules=yes
    gradle=yes
    rm=libs/disklrucache*,user_manual

Build:20161027,20161027
    commit=beta-20161027
    submodules=yes
    gradle=yes
    rm=libs/disklrucache*,user_manual

Build:20161102,20161102
    commit=beta-20161102
    submodules=yes
    gradle=yes
    rm=libs/disklrucache*,user_manual

Build:20161107,20161107
    commit=beta-20161107
    submodules=yes
    gradle=yes
    rm=libs/disklrucache*,user_manual

Build:20161108,20161108
    commit=beta-20161108
    submodules=yes
    gradle=yes
    rm=libs/disklrucache*,user_manual

Build:20161109,20161109
    commit=beta-20161109
    submodules=yes
    gradle=yes
    rm=libs/disklrucache*,user_manual

Build:20161111,20161111
    commit=beta-20161111
    submodules=yes
    gradle=yes
    rm=libs/disklrucache*,user_manual

Build:20161123,20161123
    commit=beta-20161123
    submodules=yes
    gradle=yes
    rm=libs/disklrucache*,user_manual

Build:20161125,20161125
    commit=beta-20161125
    submodules=yes
    gradle=yes
    rm=libs/disklrucache*,user_manual

Build:20161129,20161129
    commit=beta-20161129
    submodules=yes
    gradle=yes
    rm=libs/disklrucache*,user_manual

Build:20161215,20161215
    commit=beta-20161215
    submodules=yes
    gradle=yes
    rm=libs/disklrucache*,user_manual

Build:20161222,20161222
    commit=beta-20161222
    submodules=yes
    gradle=yes
    rm=libs/disklrucache*,user_manual

Build:20161224,20161224
    commit=beta-20161224
    submodules=yes
    gradle=yes
    rm=libs/disklrucache*,user_manual

Build:20161229,20161229
    commit=beta-20161229
    submodules=yes
    gradle=yes
    rm=libs/disklrucache*,user_manual

Build:20161230,20161230
    commit=beta-20161230
    submodules=yes
    gradle=yes
    rm=libs/disklrucache*,user_manual

Build:20170101,20170101
    commit=beta-20170101
    submodules=yes
    gradle=yes
    rm=libs/disklrucache*,user_manual

Build:20170106,20170106
    commit=beta-20170106
    submodules=yes
    gradle=yes
    rm=libs/disklrucache*,user_manual

Build:20170109,20170109
    commit=beta-20170109
    submodules=yes
    gradle=yes
    rm=libs/disklrucache*,user_manual

Build:20170111,20170111
    commit=beta-20170111
    submodules=yes
    gradle=yes
    rm=libs/disklrucache*,user_manual

Build:20170117,20170117
    commit=beta-20170117
    submodules=yes
    gradle=yes
    rm=libs/disklrucache*,user_manual

Build:20170122,20170122
    commit=beta-20170122
    submodules=yes
    gradle=yes
    rm=libs/disklrucache*,user_manual

Build:20170130,20170130
    commit=beta-20170130
    submodules=yes
    gradle=yes
    rm=libs/disklrucache*,user_manual

Build:20170202,20170202
    commit=beta-20170202
    submodules=yes
    gradle=yes
    rm=libs/disklrucache*,user_manual

Build:20170204,20170204
    commit=beta-20170204
    submodules=yes
    gradle=yes
    rm=libs/disklrucache*,user_manual

Build:20170205,20170205
    commit=beta-20170205
    submodules=yes
    gradle=yes
    rm=libs/disklrucache*,user_manual

Build:20170206,20170206
    commit=beta-20170206
    submodules=yes
    gradle=yes
    rm=libs/disklrucache*,user_manual

Build:20170207,20170207
    commit=beta-20170207
    submodules=yes
    gradle=yes
    rm=libs/disklrucache*,user_manual

Build:20170208,20170208
    commit=beta-20170208
    submodules=yes
    gradle=yes
    rm=libs/disklrucache*,user_manual

Build:20170209,20170209
    commit=beta-20170209
    submodules=yes
    gradle=yes
    rm=libs/disklrucache*,user_manual

Build:20170211,20170211
    commit=beta-20170211
    submodules=yes
    gradle=yes
    rm=libs/disklrucache*,user_manual

Build:20170213,20170213
    commit=beta-20170213
    submodules=yes
    gradle=yes
    rm=libs/disklrucache*,user_manual

Build:20170214,20170214
    commit=beta-20170214
    submodules=yes
    gradle=yes
    rm=libs/disklrucache*,user_manual

Build:20170217,20170217
    commit=beta-20170217
    submodules=yes
    gradle=yes
    rm=libs/disklrucache*,user_manual

Build:20170218,20170218
    commit=beta-20170218
    submodules=yes
    gradle=yes
    rm=libs/disklrucache*,user_manual

Build:20170219,20170219
    commit=beta-20170219
    submodules=yes
    gradle=yes
    rm=libs/disklrucache*,user_manual

Build:20170220,20170220
    commit=beta-20170220
    submodules=yes
    gradle=yes
    rm=libs/disklrucache*,user_manual

Build:20170221,20170221
    commit=beta-20170221
    submodules=yes
    gradle=yes
    rm=libs/disklrucache*,user_manual

Build:20170222,20170222
    commit=beta-20170222
    submodules=yes
    gradle=yes
    rm=libs/disklrucache*,user_manual

Build:20170223,20170223
    commit=beta-20170223
    submodules=yes
    gradle=yes
    rm=libs/disklrucache*,user_manual

Build:20170224,20170224
    disable=wrongly-tagged
    commit=beta-20170224
    submodules=yes
    gradle=yes
    rm=libs/disklrucache*,user_manual

Build:20170301,20170301
    disable=non-free google repo
    commit=beta-20170301
    submodules=yes
    gradle=yes
    rm=libs/disklrucache*,user_manual

Build:20170302,20170302
    disable=non-free google repo
    commit=beta-20170302
    submodules=yes
    gradle=yes
    rm=libs/disklrucache*,user_manual

Build:20170305,20170305
    disable=non-free google repo
    commit=beta-20170305
    submodules=yes
    gradle=yes
    rm=libs/disklrucache*,user_manual

Build:20170306,20170306
    disable=non-free google repo
    commit=beta-20170306
    submodules=yes
    gradle=yes
    rm=libs/disklrucache*,user_manual

Build:20170308,20170308
    commit=beta-20170309
    submodules=yes
    gradle=yes
    rm=libs/disklrucache*,user_manual

Build:20170311,20170311
    commit=beta-20170311
    submodules=yes
    gradle=yes
    rm=libs/disklrucache*,user_manual

Build:20170314,20170314
    commit=beta-20170314
    submodules=yes
    gradle=yes
    rm=libs/disklrucache*,user_manual

Build:20170315,20170315
    commit=beta-20170315
    submodules=yes
    gradle=yes
    rm=libs/disklrucache*,user_manual

Build:20170317,20170317
    commit=beta-20170317
    submodules=yes
    gradle=yes
    rm=libs/disklrucache*,user_manual

Build:20170413,20170413
    commit=dev-20170413
    submodules=yes
    gradle=generic
    rm=libs/disklrucache*,user_manual
    prebuild=sed -i -e '/google-services/d' -e '/modifiedCompile/d' build.gradle

Build:20170414,20170414
    commit=dev-20170414
    submodules=yes
    gradle=generic
    rm=libs/disklrucache*,user_manual
    prebuild=sed -i -e '/google-services/d' -e '/modifiedCompile/d' build.gradle

Build:20170415,20170415
    commit=dev-20170415
    submodules=yes
    gradle=generic
    rm=libs/disklrucache*,user_manual
    prebuild=sed -i -e '/google-services/d' -e '/modifiedCompile/d' build.gradle

Build:20170419,20170419
    commit=dev-20170419
    submodules=yes
    gradle=generic
    rm=libs/disklrucache*,user_manual
    prebuild=sed -i -e '/google-services/d' -e '/modifiedCompile/d' build.gradle

Build:20170425,20170425
    commit=dev-20170425
    submodules=yes
    gradle=generic
    rm=libs/disklrucache*,user_manual
    prebuild=sed -i -e '/google-services/d' -e '/modifiedCompile/d' build.gradle

Build:20170426,20170426
    commit=dev-20170426
    submodules=yes
    gradle=generic
    rm=libs/disklrucache*,user_manual
    prebuild=sed -i -e '/google-services/d' -e '/modifiedCompile/d' build.gradle

Build:20170427,20170427
    disable=build failed
    commit=dev-20170427
    submodules=yes
    gradle=generic
    rm=libs/disklrucache*,user_manual
    prebuild=sed -i -e '/google-services/d' -e '/modifiedCompile/d' build.gradle

Build:20170429,20170429
    commit=dev-20170429
    submodules=yes
    gradle=generic
    rm=libs/disklrucache*,user_manual
    prebuild=sed -i -e '/google-services/d' -e '/modifiedCompile/d' build.gradle

Build:20170430,20170430
    commit=dev-20170430
    submodules=yes
    gradle=generic
    rm=libs/disklrucache*,user_manual
    prebuild=sed -i -e '/google-services/d' -e '/modifiedCompile/d' build.gradle

Build:20170502,20170502
    disable=build failed
    commit=dev-20170502
    submodules=yes
    gradle=generic
    rm=libs/disklrucache*,user_manual
    prebuild=sed -i -e '/google-services/d' -e '/modifiedCompile/d' build.gradle

Build:20170509,20170509
    commit=dev-20170509
    submodules=yes
    gradle=generic
    rm=libs/disklrucache*,user_manual
    prebuild=sed -i -e '/google-services/d' -e '/modifiedCompile/d' build.gradle

Build:20170511,20170511
    commit=dev-20170511
    submodules=yes
    gradle=generic
    rm=libs/disklrucache*,user_manual
    prebuild=sed -i -e '/google-services/d' -e '/modifiedCompile/d' build.gradle

Build:20170515,20170515
    disable=build failed
    commit=dev-20170515
    submodules=yes
    gradle=generic
    rm=libs/disklrucache*,user_manual
    prebuild=sed -i -e '/google-services/d' -e '/modifiedCompile/d' build.gradle

Build:20170516,20170516
    commit=dev-20170516
    submodules=yes
    gradle=generic
    rm=libs/disklrucache*,user_manual
    prebuild=sed -i -e '/google-services/d' -e '/modifiedCompile/d' build.gradle

Build:20170519,20170519
    commit=dev-20170519
    submodules=yes
    gradle=generic
    rm=libs/disklrucache*,user_manual
    prebuild=sed -i -e '/google-services/d' -e '/modifiedCompile/d' build.gradle

Build:20170522,20170522
    commit=dev-20170522
    submodules=yes
    gradle=generic
    rm=libs/disklrucache*,user_manual
    prebuild=sed -i -e '/google-services/d' -e '/modifiedCompile/d' build.gradle

Build:20170524,20170524
    commit=dev-20170524
    submodules=yes
    gradle=generic
    rm=libs/disklrucache*,user_manual
    prebuild=sed -i -e '/google-services/d' -e '/modifiedCompile/d' build.gradle

Build:20170525,20170525
    commit=dev-20170525
    submodules=yes
    gradle=generic
    rm=libs/disklrucache*,user_manual
    prebuild=sed -i -e '/google-services/d' -e '/modifiedCompile/d' build.gradle

Build:20170528,20170528
    commit=dev-20170528
    submodules=yes
    gradle=generic
    rm=libs/disklrucache*,user_manual
    prebuild=sed -i -e '/google-services/d' -e '/modifiedCompile/d' build.gradle

Build:20170529,20170529
    commit=dev-20170529
    submodules=yes
    gradle=generic
    rm=libs/disklrucache*,user_manual
    prebuild=sed -i -e '/google-services/d' -e '/modifiedCompile/d' build.gradle

Build:20170602,20170602
    commit=dev-20170602
    submodules=yes
    gradle=generic
    rm=libs/disklrucache*,user_manual
    prebuild=sed -i -e '/google-services/d' -e '/modifiedCompile/d' build.gradle

Build:20170603,20170603
    commit=dev-20170603
    submodules=yes
    gradle=generic
    rm=libs/disklrucache*,user_manual
    prebuild=sed -i -e '/google-services/d' -e '/modifiedCompile/d' build.gradle

Build:20170606,20170606
    commit=dev-20170606
    submodules=yes
    gradle=generic
    rm=libs/disklrucache*,user_manual
    prebuild=sed -i -e '/google-services/d' -e '/modifiedCompile/d' build.gradle

Build:20170609,20170609
    commit=dev-20170609
    submodules=yes
    gradle=generic
    rm=libs/disklrucache*,user_manual
    prebuild=sed -i -e '/google-services/d' -e '/modifiedCompile/d' build.gradle

Build:20170613,20170613
    commit=dev-20170613
    submodules=yes
    gradle=generic
    rm=libs/disklrucache*,user_manual
    prebuild=sed -i -e '/google-services/d' -e '/modifiedCompile/d' build.gradle

Build:20170615,20170615
    commit=dev-20170615
    submodules=yes
    gradle=generic
    rm=libs/disklrucache*,user_manual
    prebuild=sed -i -e '/google-services/d' -e '/modifiedCompile/d' build.gradle

Build:20170618,20170618
    commit=dev-20170618
    submodules=yes
    gradle=generic
    rm=libs/disklrucache*,user_manual
    prebuild=sed -i -e '/google-services/d' -e '/modifiedCompile/d' build.gradle

Build:20170623,20170623
    commit=dev-20170623
    submodules=yes
    gradle=generic
    rm=libs/disklrucache*,user_manual
    prebuild=sed -i -e '/google-services/d' -e '/modifiedCompile/d' build.gradle

Build:20170624,20170624
    commit=dev-20170624
    submodules=yes
    gradle=generic
    rm=libs/disklrucache*,user_manual
    prebuild=sed -i -e '/google-services/d' -e '/modifiedCompile/d' build.gradle

Build:20170627,20170627
    commit=dev-20170627
    submodules=yes
    gradle=generic
    rm=libs/disklrucache*,user_manual
    prebuild=sed -i -e '/google-services/d' -e '/modifiedCompile/d' build.gradle

Build:20170628,20170628
    commit=dev-20170628
    submodules=yes
    gradle=generic
    rm=libs/disklrucache*,user_manual
    prebuild=sed -i -e '/google-services/d' -e '/modifiedCompile/d' build.gradle

Build:20170629,20170629
    commit=dev-20170629
    submodules=yes
    gradle=generic
    rm=libs/disklrucache*,user_manual
    prebuild=sed -i -e '/google-services/d' -e '/modifiedCompile/d' build.gradle

Build:20170630,20170630
    commit=dev-20170630
    submodules=yes
    gradle=generic
    rm=libs/disklrucache*,user_manual
    prebuild=sed -i -e '/google-services/d' -e '/modifiedCompile/d' build.gradle

Build:20170701,20170701
    commit=dev-20170701
    submodules=yes
    gradle=generic
    rm=libs/disklrucache*,user_manual
    prebuild=sed -i -e '/google-services/d' -e '/modifiedCompile/d' build.gradle

Build:20170706,20170706
    commit=dev-20170706
    submodules=yes
    gradle=generic
    rm=libs/disklrucache*,user_manual
    prebuild=sed -i -e '/google-services/d' -e '/modifiedCompile/d' build.gradle

Build:20170707,20170707
    commit=dev-20170707
    submodules=yes
    gradle=generic
    rm=libs/disklrucache*,user_manual
    prebuild=sed -i -e '/google-services/d' -e '/modifiedCompile/d' build.gradle

Build:20170713,20170713
    commit=dev-20170713
    submodules=yes
    gradle=generic
    rm=libs/disklrucache*,user_manual
    prebuild=sed -i -e '/google-services/d' -e '/modifiedCompile/d' build.gradle

Build:20170716,20170716
    commit=dev-20170716
    submodules=yes
    gradle=generic
    rm=libs/disklrucache*,user_manual
    prebuild=sed -i -e '/google-services/d' -e '/modifiedCompile/d' build.gradle

Build:20170718,20170718
    commit=dev-20170718
    submodules=yes
    gradle=generic
    rm=libs/disklrucache*,user_manual
    prebuild=sed -i -e '/google-services/d' -e '/modifiedCompile/d' build.gradle

Build:20170722,20170722
    commit=dev-20170722
    submodules=yes
    gradle=generic
    rm=libs/disklrucache*,user_manual
    prebuild=sed -i -e '/google-services/d' -e '/modifiedCompile/d' build.gradle

Build:20170723,20170723
    commit=dev-20170723
    submodules=yes
    gradle=generic
    rm=libs/disklrucache*,user_manual
    prebuild=sed -i -e '/google-services/d' -e '/modifiedCompile/d' build.gradle

Build:20170724,20170724
    commit=dev-20170724
    submodules=yes
    gradle=generic
    rm=libs/disklrucache*,user_manual
    prebuild=sed -i -e '/google-services/d' -e '/modifiedCompile/d' build.gradle

Build:20170727,20170727
    commit=dev-20170727
    submodules=yes
    gradle=generic
    rm=libs/disklrucache*,user_manual
    prebuild=sed -i -e '/google-services/d' -e '/modifiedCompile/d' build.gradle

Build:20170731,20170731
    commit=dev-20170731
    submodules=yes
    gradle=generic
    rm=libs/disklrucache*,user_manual
    prebuild=sed -i -e '/google-services/d' -e '/modifiedCompile/d' build.gradle

Build:20170804,20170804
    commit=dev-20170804
    submodules=yes
    gradle=generic
    rm=libs/disklrucache*,user_manual
    prebuild=sed -i -e '/google-services/d' -e '/modifiedCompile/d' build.gradle

Build:20170807,20170807
    commit=dev-20170807
    submodules=yes
    gradle=generic
    rm=libs/disklrucache*,user_manual
    prebuild=sed -i -e '/google-services/d' -e '/modifiedCompile/d' build.gradle

Build:20170808,20170808
    commit=dev-20170808
    submodules=yes
    gradle=generic
    output=build/outputs/apk/generic/release/com.nextcloud.android.beta-generic-release-unsigned.apk
    rm=libs/disklrucache*,user_manual
    prebuild=sed -i -e '/google-services/d' -e '/modifiedCompile/d' build.gradle

Build:20170810,20170810
    commit=dev-20170810
    submodules=yes
    gradle=generic
    output=build/outputs/apk/generic/release/com.nextcloud.android.beta-generic-release-unsigned.apk
    rm=libs/disklrucache*,user_manual
    prebuild=sed -i -e '/google-services/d' -e '/modifiedCompile/d' build.gradle

Build:20170816,20170816
    commit=dev-20170816
    submodules=yes
    gradle=generic
    output=build/outputs/apk/generic/release/com.nextcloud.android.beta-generic-release-unsigned.apk
    rm=libs/disklrucache*,user_manual
    prebuild=sed -i -e '/google-services/d' -e '/modifiedCompile/d' build.gradle

Build:20170818,20170818
    commit=dev-20170818
    submodules=yes
    gradle=generic
    output=build/outputs/apk/generic/release/com.nextcloud.android.beta-generic-release-unsigned.apk
    rm=libs/disklrucache*,user_manual
    prebuild=sed -i -e '/google-services/d' -e '/modifiedCompile/d' build.gradle

Build:20170822,20170822
    commit=dev-20170822
    submodules=yes
    gradle=generic
    output=build/outputs/apk/generic/release/com.nextcloud.android.beta-generic-release-unsigned.apk
    rm=libs/disklrucache*,user_manual
    prebuild=sed -i -e '/google-services/d' -e '/modifiedCompile/d' build.gradle

Build:20170823,20170823
    commit=dev-20170823
    submodules=yes
    gradle=generic
    output=build/outputs/apk/generic/release/com.nextcloud.android.beta-generic-release-unsigned.apk
    rm=libs/disklrucache*,user_manual
    prebuild=sed -i -e '/google-services/d' -e '/modifiedCompile/d' build.gradle

Build:20170829,20170829
    commit=dev-20170829
    submodules=yes
    gradle=generic
    output=build/outputs/apk/generic/release/com.nextcloud.android.beta-generic-release-unsigned.apk
    rm=libs/disklrucache*,user_manual
    prebuild=sed -i -e '/google-services/d' -e '/modifiedCompile/d' build.gradle

Build:20170830,20170830
    commit=dev-20170830
    submodules=yes
    gradle=generic
    output=build/outputs/apk/generic/release/com.nextcloud.android.beta-generic-release-unsigned.apk
    rm=libs/disklrucache*,user_manual
    prebuild=sed -i -e '/google-services/d' -e '/modifiedCompile/d' build.gradle

Build:20170901,20170901
    commit=dev-20170901
    submodules=yes
    gradle=generic
    output=build/outputs/apk/generic/release/com.nextcloud.android.beta-generic-release-unsigned.apk
    rm=libs/disklrucache*,user_manual
    prebuild=sed -i -e '/google-services/d' -e '/modifiedCompile/d' build.gradle

Build:20170903,20170903
    commit=dev-20170903
    submodules=yes
    gradle=generic
    output=build/outputs/apk/generic/release/com.nextcloud.android.beta-generic-release-unsigned.apk
    rm=libs/disklrucache*,user_manual
    prebuild=sed -i -e '/google-services/d' -e '/modifiedCompile/d' build.gradle

Build:20170907,20170907
    disable=syntax error
    commit=dev-20170907
    submodules=yes
    gradle=generic
    output=build/outputs/apk/generic/release/com.nextcloud.android.beta-generic-release-unsigned.apk
    rm=libs/disklrucache*,user_manual
    prebuild=sed -i -e '/google-services/d' -e '/modifiedCompile/d' build.gradle

Build:20170921,20170921
    commit=dev-20170921
    submodules=yes
    gradle=generic
    output=build/outputs/apk/generic/release/com.nextcloud.android.beta-generic-release-unsigned.apk
    rm=libs/disklrucache*,user_manual
    prebuild=sed -i -e '/google-services/d' -e '/modifiedCompile/d' build.gradle

Build:20170926,20170926
    commit=dev-20170926
    submodules=yes
    gradle=generic
    output=build/outputs/apk/generic/release/com.nextcloud.android.beta-generic-release-unsigned.apk
    rm=libs/disklrucache*,user_manual
    prebuild=sed -i -e '/google-services/d' -e '/modifiedCompile/d' build.gradle

Build:20170930,20170930
    commit=dev-20170930
    submodules=yes
    gradle=generic
    output=build/outputs/apk/generic/release/com.nextcloud.android.beta-generic-release-unsigned.apk
    rm=libs/disklrucache*,user_manual
    prebuild=sed -i -e '/google-services/d' -e '/modifiedCompile/d' build.gradle

Build:20171204,20171204
    commit=dev-20171204
    submodules=yes
    gradle=versionDev
    rm=user_manual
    prebuild=sed -i -e '/google-services/d' -e '/modifiedCompile/d' build.gradle

Build:20171209,20171209
    commit=dev-20171209
    submodules=yes
    gradle=versionDev
    rm=user_manual
    prebuild=sed -i -e '/google-services/d' -e '/modifiedCompile/d' build.gradle

Build:20171212,20171212
    commit=dev-20171212
    submodules=yes
    gradle=versionDev
    rm=user_manual
    prebuild=sed -i -e '/google-services/d' -e '/modifiedCompile/d' build.gradle

Build:20171213,20171213
    commit=dev-20171213
    submodules=yes
    gradle=versionDev
    rm=user_manual
    prebuild=sed -i -e '/google-services/d' -e '/modifiedCompile/d' build.gradle

Build:20171220,20171220
    commit=dev-20171220
    submodules=yes
    gradle=versionDev
    rm=user_manual
    prebuild=sed -i -e '/google-services/d' -e '/modifiedCompile/d' build.gradle

Build:20171223,20171223
    commit=dev-20171223
    submodules=yes
    gradle=versionDev
    rm=user_manual
    prebuild=sed -i -e '/google-services/d' -e '/modifiedCompile/d' build.gradle

Build:20171228,20171228
    commit=dev-20171228
    submodules=yes
    gradle=versionDev
    rm=user_manual
    prebuild=sed -i -e '/google-services/d' -e '/modifiedCompile/d' build.gradle

Build:20171230,20171230
    commit=dev-20171230
    submodules=yes
    gradle=versionDev
    rm=user_manual
    prebuild=sed -i -e '/google-services/d' -e '/modifiedCompile/d' build.gradle

Build:20180105,20180105
    commit=dev-20180105
    submodules=yes
    gradle=versionDev
    rm=user_manual
    prebuild=sed -i -e '/google-services/d' -e '/modifiedCompile/d' build.gradle

Build:20180106,20180106
    commit=dev-20180106
    submodules=yes
    gradle=versionDev
    rm=user_manual
    prebuild=sed -i -e '/google-services/d' -e '/modifiedCompile/d' build.gradle

Build:20180108,20180108
    commit=dev-20180108
    submodules=yes
    gradle=versionDev
    rm=user_manual
    prebuild=sed -i -e '/google-services/d' -e '/modifiedCompile/d' build.gradle

Build:20180109,20180109
    commit=dev-20180109
    submodules=yes
    gradle=versionDev
    rm=user_manual
    prebuild=sed -i -e '/google-services/d' -e '/modifiedCompile/d' build.gradle

Build:20180111,20180111
    commit=dev-20180111
    submodules=yes
    gradle=versionDev
    rm=user_manual
    prebuild=sed -i -e '/google-services/d' -e '/modifiedCompile/d' build.gradle

Build:20180112,20180112
    commit=dev-20180112
    submodules=yes
    gradle=versionDev
    rm=user_manual
    prebuild=sed -i -e '/google-services/d' -e '/modifiedCompile/d' build.gradle

Build:20180114,20180114
    commit=dev-20180114
    submodules=yes
    gradle=versionDev
    rm=user_manual
    prebuild=sed -i -e '/google-services/d' -e '/modifiedCompile/d' build.gradle

Build:20180117,20180117
    commit=dev-20180117
    submodules=yes
    gradle=versionDev
    rm=user_manual
    scandelete=src/androidTest

Build:20180118,20180118
    commit=dev-20180118
    submodules=yes
    gradle=versionDev
    rm=user_manual
    scandelete=src/androidTest

Build:20180121,20180121
    commit=dev-20180121
    submodules=yes
    gradle=versionDev
    rm=user_manual
    scandelete=src/androidTest

Build:20180123,20180123
    commit=dev-20180123
    submodules=yes
    gradle=versionDev
    rm=user_manual
    scandelete=src/androidTest

Build:20180127,20180127
    commit=dev-20180127
    submodules=yes
    gradle=versionDev
    rm=user_manual
    scandelete=src/androidTest

Build:20180131,20180131
    commit=dev-20180131
    submodules=yes
    gradle=versionDev
    rm=user_manual
    scandelete=src/androidTest

Build:20180201,20180201
    commit=dev-20180201
    submodules=yes
    gradle=versionDev
    rm=user_manual
    scandelete=src/androidTest

Build:20180204,20180204
    commit=dev-20180204
    submodules=yes
    gradle=versionDev
    rm=user_manual
    scandelete=src/androidTest

Build:20180210,20180210
    commit=dev-20180210
    submodules=yes
    gradle=versionDev
    rm=user_manual
    scandelete=src/androidTest

Build:20180214,20180214
    commit=dev-20180214
    submodules=yes
    gradle=versionDev
    rm=user_manual
    scandelete=src/androidTest

Build:20180217,20180217
    commit=dev-20180217
    submodules=yes
    gradle=versionDev
    rm=user_manual
    scandelete=src/androidTest

Build:20180221,20180221
    commit=dev-20180221
    submodules=yes
    gradle=versionDev
    rm=user_manual
    scandelete=src/androidTest

Build:20180224,20180224
    commit=dev-20180224
    submodules=yes
    gradle=versionDev
    rm=user_manual
    scandelete=src/androidTest

Build:20180301,20180301
    commit=dev-20180301
    submodules=yes
    gradle=versionDev
    rm=user_manual
    scandelete=src/androidTest

Build:20180302,20180302
    commit=dev-20180302
    submodules=yes
    gradle=versionDev
    rm=user_manual
    scandelete=src/androidTest

Build:20180303,20180303
    commit=dev-20180303
    submodules=yes
    gradle=versionDev
    rm=user_manual
    scandelete=src/androidTest

Build:20180309,20180309
    commit=dev-20180309
    submodules=yes
    gradle=versionDev
    rm=user_manual
    scandelete=src/androidTest

Build:20180314,20180314
    commit=dev-20180314
    submodules=yes
    gradle=versionDev
    rm=user_manual
    scandelete=src/androidTest

Build:20180316,20180316
    commit=dev-20180316
    submodules=yes
    gradle=versionDev
    rm=user_manual
    scandelete=src/androidTest

Build:20180320,20180320
    commit=dev-20180320
    submodules=yes
    gradle=versionDev
    rm=user_manual
    scandelete=src/androidTest

Build:20180322,20180322
    commit=dev-20180322
    submodules=yes
    gradle=versionDev
    rm=user_manual
    scandelete=src/androidTest

Build:20180324,20180324
    commit=dev-20180324
    submodules=yes
    gradle=versionDev
    rm=user_manual
    scandelete=src/androidTest

Build:20180330,20180330
    commit=dev-20180330
    submodules=yes
    gradle=versionDev
    rm=user_manual
    scandelete=src/androidTest

Build:20180404,20180404
    commit=dev-20180404
    submodules=yes
    gradle=versionDev
    rm=user_manual
    scandelete=src/androidTest

Build:20180410,20180410
    commit=dev-20180410
    submodules=yes
    gradle=versionDev
    rm=user_manual
    scandelete=src/androidTest

Build:20180412,20180412
    commit=dev-20180412
    submodules=yes
    gradle=versionDev
    rm=user_manual
    scandelete=src/androidTest

Build:20180414,20180414
    commit=dev-20180414
    submodules=yes
    gradle=versionDev
    rm=user_manual
    scandelete=src/androidTest

Build:20180417,20180417
    commit=dev-20180417
    submodules=yes
    gradle=versionDev
    rm=user_manual
    scandelete=src/androidTest

Build:20180419,20180419
    commit=dev-20180419
    submodules=yes
    gradle=versionDev
    rm=user_manual
    scandelete=src/androidTest

Build:20180423,20180423
    commit=dev-20180423
    submodules=yes
    gradle=versionDev
    rm=user_manual
    scandelete=src/androidTest

Build:20180424,20180424
    commit=dev-20180424
    submodules=yes
    gradle=versionDev
    rm=user_manual
    scandelete=src/androidTest

Build:20180425,20180425
    commit=dev-20180425
    submodules=yes
    gradle=versionDev
    rm=user_manual
    scandelete=src/androidTest

Build:20180427,20180427
    commit=dev-20180427
    submodules=yes
    gradle=versionDev
    rm=user_manual
    scandelete=src/androidTest

Build:20180522,20180522
    disable=failing build
    commit=dev-20180522
    submodules=yes
    gradle=versionDev
    rm=user_manual
    scandelete=src/androidTest

Build:20180524,20180524
    commit=dev-20180524
    submodules=yes
    gradle=versionDev
    rm=user_manual
    scandelete=src/androidTest

Build:20180525,20180525
    commit=dev-20180525
    submodules=yes
    gradle=versionDev
    rm=user_manual
    scandelete=src/androidTest

Build:20180526,20180526
    commit=dev-20180526
    submodules=yes
    gradle=versionDev
    rm=user_manual
    scandelete=src/androidTest

Build:20180602,20180602
    commit=dev-20180602
    submodules=yes
    gradle=versionDev
    rm=user_manual
    scandelete=src/androidTest

Build:20180607,20180607
    commit=dev-20180607
    submodules=yes
    gradle=versionDev
    rm=user_manual
    scandelete=src/androidTest

Build:20180610,20180610
    commit=dev-20180610
    submodules=yes
    gradle=versionDev
    rm=user_manual
    scandelete=src/androidTest

Build:20180611,20180611
    commit=dev-20180611
    submodules=yes
    gradle=versionDev
    rm=user_manual
    scandelete=src/androidTest

Build:20180612,20180612
    commit=dev-20180612
    submodules=yes
    gradle=versionDev
    rm=user_manual
    scandelete=src/androidTest

Build:20180613,20180613
    commit=dev-20180613
    submodules=yes
    gradle=versionDev
    rm=user_manual
    scandelete=src/androidTest

Build:20180616,20180616
    commit=dev-20180616
    submodules=yes
    gradle=versionDev
    rm=user_manual
    scandelete=src/androidTest

Build:20180619,20180619
    commit=dev-20180619
    submodules=yes
    gradle=versionDev
    rm=user_manual
    scandelete=src/androidTest

Build:20180620,20180620
    commit=dev-20180620
    submodules=yes
    gradle=versionDev
    rm=user_manual
    scandelete=src/androidTest

Build:20180621,20180621
    commit=dev-20180621
    submodules=yes
    gradle=versionDev
    rm=user_manual
    scandelete=src/androidTest

Build:20180622,20180622
    commit=dev-20180622
    submodules=yes
    gradle=versionDev
    rm=user_manual
    scandelete=src/androidTest

Build:20180627,20180627
    commit=dev-20180627
    submodules=yes
    gradle=versionDev
    rm=user_manual
    scandelete=src/androidTest

Build:20180628,20180628
    commit=dev-20180628
    submodules=yes
    gradle=versionDev
    rm=user_manual
    scandelete=src/androidTest

Build:20180630,20180630
    commit=dev-20180630
    submodules=yes
    gradle=versionDev
    rm=user_manual
    scandelete=src/androidTest

Build:20180704,20180704
    commit=dev-20180704
    submodules=yes
    gradle=versionDev
    rm=user_manual
    scandelete=src/androidTest

Build:20180715,20180715
    commit=dev-20180715
    submodules=yes
    gradle=versionDev
    rm=user_manual
    scandelete=src/androidTest

Build:20180718,20180718
    commit=dev-20180718
    submodules=yes
    gradle=versionDev
    rm=user_manual
    scandelete=src/androidTest

Build:20180719,20180719
    commit=dev-20180719
    submodules=yes
    gradle=versionDev
    rm=user_manual
    scandelete=src/androidTest

Build:20180721,20180721
    commit=dev-20180721
    submodules=yes
    gradle=versionDev
    rm=user_manual
    scandelete=src/androidTest

Build:20180726,20180726
    commit=dev-20180726
    submodules=yes
    gradle=versionDev
    rm=user_manual
    scandelete=src/androidTest

Build:20180803,20180803
    commit=dev-20180803
    submodules=yes
    gradle=versionDev
    rm=user_manual
    scandelete=src/androidTest

Build:20180809,20180809
    commit=dev-20180809
    submodules=yes
    gradle=versionDev
    rm=user_manual,gplay.gradle
    scandelete=src/androidTest

Build:20180811,20180811
    commit=dev-20180811
    submodules=yes
    gradle=versionDev
    rm=user_manual,gplay.gradle
    scandelete=src/androidTest

Build:20180821,20180821
    commit=dev-20180821
    submodules=yes
    gradle=versionDev
    rm=user_manual,gplay.gradle
    scandelete=src/androidTest

Build:20180823,20180823
    commit=dev-20180823
    submodules=yes
    gradle=versionDev
    rm=user_manual,gplay.gradle
    scandelete=src/androidTest

Build:20180824,20180824
    commit=dev-20180824
    submodules=yes
    gradle=versionDev
    rm=user_manual,gplay.gradle
    scandelete=src/androidTest

Build:20180825,20180825
    commit=dev-20180825
    submodules=yes
    gradle=versionDev
    rm=user_manual,gplay.gradle
    scandelete=src/androidTest

Build:20180829,20180829
    commit=dev-20180829
    submodules=yes
    gradle=versionDev
    rm=user_manual,gplay.gradle
    scandelete=src/androidTest

Build:20180903,20180903
    commit=dev-20180903
    submodules=yes
    gradle=versionDev
    rm=user_manual,gplay.gradle
    scandelete=src/androidTest

Build:20180905,20180905
    commit=dev-20180905
    submodules=yes
    gradle=versionDev
    rm=user_manual,gplay.gradle
    scandelete=src/androidTest

Build:20180908,20180908
    commit=dev-20180908
    submodules=yes
    gradle=versionDev
    rm=user_manual,gplay.gradle
    scandelete=src/androidTest

Build:20180911,20180911
    commit=dev-20180911
    submodules=yes
    gradle=versionDev
    rm=user_manual,gplay.gradle
    scandelete=src/androidTest

Build:20180912,20180912
    commit=dev-20180912
    submodules=yes
    gradle=versionDev
    rm=user_manual,gplay.gradle
    scandelete=src/androidTest

Build:20180913,20180913
    commit=dev-20180913
    submodules=yes
    gradle=versionDev
    rm=user_manual,gplay.gradle
    scandelete=src/androidTest

Build:20180914,20180914
    commit=dev-20180914
    submodules=yes
    gradle=versionDev
    rm=user_manual,gplay.gradle
    scandelete=src/androidTest

Build:20180915,20180915
    commit=dev-20180915
    submodules=yes
    gradle=versionDev
    rm=user_manual,gplay.gradle
    scandelete=src/androidTest

Build:20180920,20180920
    commit=dev-20180920
    submodules=yes
    gradle=versionDev
    rm=user_manual,gplay.gradle
    scandelete=src/androidTest

Build:20180924,20180924
    commit=dev-20180924
    submodules=yes
    gradle=versionDev
    rm=user_manual,gplay.gradle
    scandelete=src/androidTest

Build:20180927,20180927
    commit=dev-20180927
    submodules=yes
    gradle=versionDev
    rm=user_manual,gplay.gradle
    scandelete=src/androidTest

Build:20181009,20181009
    commit=dev-20181009
    submodules=yes
    gradle=versionDev
    rm=user_manual,gplay.gradle
    scandelete=src/androidTest

Build:20181013,20181013
    commit=dev-20181013
    submodules=yes
    gradle=versionDev
    rm=user_manual,gplay.gradle
    scandelete=src/androidTest

Build:20181016,20181016
    commit=dev-20181016
    submodules=yes
    gradle=versionDev
    rm=user_manual,gplay.gradle
    scandelete=src/androidTest

Build:20181018,20181018
    commit=dev-20181018
    submodules=yes
    gradle=versionDev
    rm=user_manual,gplay.gradle
    scandelete=src/androidTest

Build:20181020,20181020
    commit=dev-20181020
    submodules=yes
    gradle=versionDev
    rm=user_manual,gplay.gradle
    scandelete=src/androidTest

Build:20181024,20181024
    commit=dev-20181024
    submodules=yes
    gradle=versionDev
    rm=user_manual,gplay.gradle
    scandelete=src/androidTest

Build:20181025,20181025
    commit=dev-20181025
    submodules=yes
    gradle=versionDev
    rm=user_manual,gplay.gradle
    scandelete=src/androidTest

Build:20181026,20181026
    commit=dev-20181026
    submodules=yes
    gradle=versionDev
    rm=user_manual,gplay.gradle
    scandelete=src/androidTest

Build:20181027,20181027
    commit=dev-20181027
    submodules=yes
    gradle=versionDev
    rm=user_manual,gplay.gradle
    scandelete=src/androidTest

Build:20181028,20181028
    commit=dev-20181028
    submodules=yes
    gradle=versionDev
    rm=user_manual,gplay.gradle
    scandelete=src/androidTest

Build:20181030,20181030
    commit=dev-20181030
    submodules=yes
    gradle=versionDev
    rm=user_manual,gplay.gradle
    scandelete=src/androidTest

Build:20181031,20181031
    commit=dev-20181031
    submodules=yes
    gradle=versionDev
    rm=user_manual,gplay.gradle
    scandelete=src/androidTest

Build:20181101,20181101
    commit=dev-20181101
    submodules=yes
    gradle=versionDev
    rm=user_manual,gplay.gradle
    scandelete=src/androidTest

Build:20181102,20181102
    commit=dev-20181102
    submodules=yes
    gradle=versionDev
    rm=user_manual,gplay.gradle
    scandelete=src/androidTest

Build:20181103,20181103
    commit=dev-20181103
    submodules=yes
    gradle=versionDev
    rm=user_manual,gplay.gradle
    scandelete=src/androidTest

Build:20181106,20181106
    commit=dev-20181106
    submodules=yes
    gradle=versionDev
    rm=user_manual,gplay.gradle
    scandelete=src/androidTest

Build:20181107,20181107
    commit=dev-20181107
    submodules=yes
    gradle=versionDev
    rm=user_manual,gplay.gradle
    scandelete=src/androidTest

Build:20181204,20181204
    commit=dev-20181204
    submodules=yes
    gradle=versionDev
    rm=user_manual,gplay.gradle
    scandelete=src/androidTest

Build:20181206,20181206
    commit=dev-20181206
    submodules=yes
    gradle=versionDev
    rm=user_manual,gplay.gradle
    scandelete=src/androidTest

Build:20181211,20181211
    commit=dev-20181211
    submodules=yes
    gradle=versionDev
    rm=user_manual,gplay.gradle
    scandelete=src/androidTest

Build:20181212,20181212
    commit=dev-20181212
    submodules=yes
    gradle=versionDev
    rm=user_manual,gplay.gradle
    scandelete=src/androidTest

Build:20181214,20181214
    commit=dev-20181214
    submodules=yes
    gradle=versionDev
    rm=user_manual,gplay.gradle
    scandelete=src/androidTest

Build:20181216,20181216
    commit=dev-20181216
    submodules=yes
    gradle=versionDev
    rm=user_manual,gplay.gradle
    scandelete=src/androidTest

Build:20181218,20181218
    commit=dev-20181218
    submodules=yes
    gradle=versionDev
    rm=user_manual,gplay.gradle
    scandelete=src/androidTest

Build:20181222,20181222
    commit=dev-20181222
    submodules=yes
    gradle=versionDev
    rm=user_manual,gplay.gradle
    scandelete=src/androidTest

Build:20190105,20190105
    commit=dev-20190105
    submodules=yes
    gradle=versionDev
    rm=user_manual,gplay.gradle
    scandelete=src/androidTest

Build:20190108,20190108
    commit=dev-20190108
    submodules=yes
    gradle=versionDev
    rm=user_manual,gplay.gradle
    scandelete=src/androidTest

Build:20190112,20190112
    commit=dev-20190112
    submodules=yes
    gradle=versionDev
    rm=user_manual,gplay.gradle
    scandelete=src/androidTest

Build:20190113,20190113
    commit=dev-20190113
    submodules=yes
    gradle=versionDev
    rm=user_manual,gplay.gradle
    scandelete=src/androidTest

Build:20190115,20190115
    commit=dev-20190115
    submodules=yes
    gradle=versionDev
    rm=user_manual,gplay.gradle
    scandelete=src/androidTest

Build:20190117,20190117
    commit=dev-20190117
    submodules=yes
    gradle=versionDev
    rm=user_manual,gplay.gradle
    scandelete=src/androidTest

Build:20190119,20190119
    commit=dev-20190119
    submodules=yes
    gradle=versionDev
    rm=user_manual,gplay.gradle
    scandelete=src/androidTest

Build:20190122,20190122
    commit=dev-20190122
    submodules=yes
    gradle=versionDev
    rm=user_manual,gplay.gradle
    scandelete=src/androidTest

Build:20190123,20190123
    commit=dev-20190123
    submodules=yes
    gradle=versionDev
    rm=user_manual,gplay.gradle
    scandelete=src/androidTest

Build:20190129,20190129
    commit=dev-20190129
    submodules=yes
    gradle=versionDev
    rm=user_manual,gplay.gradle
    scandelete=src/androidTest

Build:20190201,20190201
    commit=dev-20190201
    submodules=yes
    gradle=versionDev
    rm=user_manual,gplay.gradle
    scandelete=src/androidTest

Build:20190202,20190202
    commit=dev-20190202
    submodules=yes
    gradle=versionDev
    rm=user_manual,gplay.gradle
    scandelete=src/androidTest

Build:20190205,20190205
    commit=dev-20190205
    submodules=yes
    gradle=versionDev
    rm=user_manual,gplay.gradle
    scandelete=src/androidTest

Build:20190207,20190207
    commit=dev-20190207
    submodules=yes
    gradle=versionDev
    rm=user_manual,gplay.gradle
    scandelete=src/androidTest

Build:20190208,20190208
    commit=dev-20190208
    submodules=yes
    gradle=versionDev
    rm=user_manual,gplay.gradle
    scandelete=src/androidTest

Build:20190209,20190209
    commit=dev-20190209
    submodules=yes
    gradle=versionDev
    rm=user_manual,gplay.gradle
    scandelete=src/androidTest

Build:20190215,20190215
    commit=dev-20190215
    submodules=yes
    gradle=versionDev
    rm=user_manual,gplay.gradle
    scandelete=src/androidTest

Build:20190216,20190216
    commit=dev-20190216
    submodules=yes
    gradle=versionDev
    rm=user_manual,gplay.gradle
    scandelete=src/androidTest

Build:20190220,20190220
    commit=dev-20190220
    submodules=yes
    gradle=versionDev
    rm=user_manual,gplay.gradle
    scandelete=src/androidTest

Build:20190221,20190221
    commit=dev-20190221
    submodules=yes
    gradle=versionDev
    rm=user_manual,gplay.gradle
    scandelete=src/androidTest

Build:20190226,20190226
    commit=dev-20190226
    submodules=yes
    gradle=versionDev
    rm=user_manual,gplay.gradle
    scandelete=src/androidTest

Build:20190228,20190228
    commit=dev-20190228
    submodules=yes
    gradle=versionDev
    rm=user_manual,gplay.gradle
    scandelete=src/androidTest

Build:20190301,20190301
    commit=dev-20190301
    submodules=yes
    gradle=versionDev
    rm=user_manual,gplay.gradle
    scandelete=src/androidTest

Build:20190305,20190305
    commit=dev-20190305
    submodules=yes
    gradle=versionDev
    rm=user_manual,gplay.gradle
    scandelete=src/androidTest

Build:20190306,20190306
    commit=dev-20190306
    submodules=yes
    gradle=versionDev
    rm=user_manual,gplay.gradle
    scandelete=src/androidTest

Build:20190307,20190307
    commit=dev-20190307
    submodules=yes
    gradle=versionDev
    rm=user_manual,gplay.gradle
    scandelete=src/androidTest

Build:20190309,20190309
    commit=dev-20190309
    submodules=yes
    gradle=versionDev
    rm=user_manual,gplay.gradle
    scandelete=src/androidTest

Build:20190312,20190312
    commit=dev-20190312
    submodules=yes
    gradle=versionDev
    rm=user_manual,gplay.gradle
    scandelete=src/androidTest

Build:20190313,20190313
    commit=dev-20190313
    submodules=yes
    gradle=versionDev
    rm=user_manual,gplay.gradle
    scandelete=src/androidTest

Build:20190314,20190314
    commit=dev-20190314
    submodules=yes
    gradle=versionDev
    rm=user_manual,gplay.gradle
    scandelete=src/androidTest

Build:20190316,20190316
    commit=dev-20190316
    submodules=yes
    gradle=versionDev
    rm=user_manual,gplay.gradle
    scandelete=src/androidTest

Build:20190319,20190319
    commit=dev-20190319
    submodules=yes
    gradle=versionDev
    rm=user_manual,gplay.gradle
    scandelete=src/androidTest

Build:20190323,20190323
    commit=dev-20190323
    submodules=yes
    gradle=versionDev
    rm=user_manual,gplay.gradle
    scandelete=src/androidTest

Build:20190327,20190327
    commit=dev-20190327
    submodules=yes
    gradle=versionDev
    rm=user_manual,gplay.gradle
    scandelete=src/androidTest

Build:20190329,20190329
    commit=dev-20190329
    submodules=yes
    gradle=versionDev
    rm=user_manual,gplay.gradle
    scandelete=src/androidTest

Build:20190404,20190404
    commit=dev-20190404
    submodules=yes
    gradle=versionDev
    rm=user_manual,gplay.gradle
    scandelete=src/androidTest

Build:20190409,20190409
    commit=dev-20190409
    submodules=yes
    gradle=versionDev
    rm=user_manual,gplay.gradle
    scandelete=src/androidTest

Build:20190412,20190412
    commit=dev-20190412
    submodules=yes
    gradle=versionDev
    rm=user_manual,gplay.gradle
    scandelete=src/androidTest

Build:20190414,20190414
    commit=dev-20190414
    submodules=yes
    gradle=versionDev
    rm=user_manual,gplay.gradle
    scandelete=src/androidTest

Maintainer Notes:
Tags get removed. See https://github.com/nextcloud/android/issues/969.
.

Auto Update Mode:Version dev-%c
Update Check Mode:Tags ^dev
Current Version:20190414
Current Version Code:20190414
